{
  "project_info": {
    "project_number": "355258661821",
    "firebase_url": "https://dev48-hotspot.firebaseio.com",
    "project_id": "dev48-hotspot",
    "storage_bucket": "dev48-hotspot.appspot.com"
  },
  "client": [
    {
      "client_info": {
        "mobilesdk_app_id": "1:355258661821:android:9119a8d65e2fbd509230d4",
        "android_client_info": {
          "package_name": "com.free.ap.freehotspot.personal.mobilehotspotfree"
        }
      },
      "oauth_client": [
        {
          "client_id": "355258661821-rv5qtlkpjsb00878h2delalct0pufkm1.apps.googleusercontent.com",
          "client_type": 3
        }
      ],
      "api_key": [
        {
          "current_key": "AIzaSyDJ-PntEjVz6zBqsiFxaWpHgevpbBZQUVE"
        }
      ],
      "services": {
        "appinvite_service": {
          "other_platform_oauth_client": [
            {
              "client_id": "355258661821-rv5qtlkpjsb00878h2delalct0pufkm1.apps.googleusercontent.com",
              "client_type": 3
            }
          ]
        }
      }
    }
  ],
  "configuration_version": "1"
}